<?xml version="1.0" encoding="UTF-8"?>
<gpx xmlns="http://www.topografix.com/GPX/1/1" xmlns:xsi="http://www.w3.org/2001/XMLSchema-instance" creator="GPSies http://www.gpsies.com - REAL CH TULIPAN Trasa Widzew/Olech&amp;#243;w" version="1.1" xsi:schemaLocation="http://www.topografix.com/GPX/1/1 http://www.topografix.com/GPX/1/1/gpx.xsd">
  <metadata>
    <name>REAL CH TULIPAN Trasa Widzew/Olechów</name>
    <link href="http://www.gpsies.com/">
      <text>REAL CH TULIPAN Trasa Widzew/Olechów on GPSies.com</text>
    </link>
    <time>2014-12-30T10:54:52Z</time>
  </metadata>
  <wpt lat="51.76307245" lon="19.49541091">
    <ele>224.00000</ele>
    <name>REAL (CH TULIPAN)</name>
    <sym>171</sym>
    <type>Generic</type>
  <id>171</id></wpt>
  <wpt lat="51.76212288" lon="19.52860593">
    <ele>237.00000</ele>
    <name>Maszynowa</name>
    <sym>170</sym>
    <type>Generic</type>
  <id>170</id></wpt>
  <wpt lat="51.76006432" lon="19.53873395">
    <ele>237.00000</ele>
    <name>Rondo Inwalidów</name>
    <sym>169</sym>
    <type>Generic</type>
  <id>169</id></wpt>
  <wpt lat="51.75826466" lon="19.54952716">
    <ele>234.00000</ele>
    <name>Lermontowa</name>
    <sym>168</sym>
    <type>Generic</type>
  <id>168</id></wpt>
  <wpt lat="51.74949776" lon="19.57303404">
    <ele>222.00000</ele>
    <name>Juranda ze Spychowa</name>
    <sym>167</sym>
    <type>Generic</type>
  <id>167</id></wpt>
  <wpt lat="51.74616988" lon="19.57142472">
    <ele>221.00000</ele>
    <name>Zagłoby</name>
    <sym>166</sym>
    <type>Generic</type>
  <id>166</id></wpt>
  <wpt lat="51.74322700" lon="19.57011600">
    <ele>218.00000</ele>
    <name>Dąbrówki</name>
    <sym>165</sym>
    <type>Generic</type>
  <id>165</id></wpt>
  <wpt lat="51.74063284" lon="19.56807196">
    <ele>219.00000</ele>
    <name>Hetmańska</name>
    <sym>164</sym>
    <type>Generic</type>
  <id>164</id></wpt>
  <wpt lat="51.74182534" lon="19.56156492">
    <ele>217.00000</ele>
    <name>Odnowiciela</name>
    <sym>163</sym>
    <type>Generic</type>
  <id>163</id></wpt>
  <wpt lat="51.75182913" lon="19.54075098">
    <ele>229.00000</ele>
    <name>Czajkowskiego</name>
    <sym>162</sym>
    <type>Generic</type>
  <id>162</id></wpt>
  <wpt lat="51.75411388" lon="19.53271508">
    <ele>231.00000</ele>
    <name>Rondo Sybiraków</name>
    <sym>161</sym>
    <type>Generic</type>
  <id>161</id></wpt>
  <wpt lat="51.75889554" lon="19.53664183">
    <ele>234.00000</ele>
    <name>Rokicińska</name>
    <sym>160</sym>
    <type>Generic</type>
  <id>160</id></wpt>
  <wpt lat="51.76299940" lon="19.49547529">
    <ele>224.00000</ele>
    <name>REAL (CH TULIPAN)</name>
    <sym>159</sym>
    <type>Generic</type>
  <id>159</id></wpt>
  <rte>
    <name>REAL CH TULIPAN Trasa Widzew/Olechów on GPSies.com</name>
    <rtept lat="51.76301932" lon="19.49541091">
      <ele>224.00000</ele>
      <time>2010-01-01T00:00:00Z</time>
    </rtept>
    <rtept lat="51.76301000" lon="19.49537000">
      <ele>224.00000</ele>
      <time>2010-01-01T00:00:01Z</time>
    </rtept>
    <rtept lat="51.76254000" lon="19.49546000">
      <ele>224.00000</ele>
      <time>2010-01-01T00:00:20Z</time>
    </rtept>
    <rtept lat="51.76225000" lon="19.49220000">
      <ele>221.00000</ele>
      <time>2010-01-01T00:01:41Z</time>
    </rtept>
    <rtept lat="51.76217000" lon="19.49157000">
      <ele>221.00000</ele>
      <time>2010-01-01T00:01:57Z</time>
    </rtept>
    <rtept lat="51.76199000" lon="19.48962000">
      <ele>220.00000</ele>
      <time>2010-01-01T00:02:46Z</time>
    </rtept>
    <rtept lat="51.76182000" lon="19.48731000">
      <ele>217.00000</ele>
      <time>2010-01-01T00:03:44Z</time>
    </rtept>
    <rtept lat="51.76177000" lon="19.48651000">
      <ele>215.00000</ele>
      <time>2010-01-01T00:04:03Z</time>
    </rtept>
    <rtept lat="51.76165000" lon="19.48520000">
      <ele>215.00000</ele>
      <time>2010-01-01T00:04:36Z</time>
    </rtept>
    <rtept lat="51.76161000" lon="19.48481000">
      <ele>215.00000</ele>
      <time>2010-01-01T00:04:46Z</time>
    </rtept>
    <rtept lat="51.76140000" lon="19.48496000">
      <ele>215.00000</ele>
      <time>2010-01-01T00:04:55Z</time>
    </rtept>
    <rtept lat="51.76145000" lon="19.48534000">
      <ele>215.00000</ele>
      <time>2010-01-01T00:05:05Z</time>
    </rtept>
    <rtept lat="51.76162000" lon="19.48730000">
      <ele>216.00000</ele>
      <time>2010-01-01T00:05:54Z</time>
    </rtept>
    <rtept lat="51.76200000" lon="19.49189000">
      <ele>221.00000</ele>
      <time>2010-01-01T00:07:49Z</time>
    </rtept>
    <rtept lat="51.76221000" lon="19.49422000">
      <ele>223.00000</ele>
      <time>2010-01-01T00:08:47Z</time>
    </rtept>
    <rtept lat="51.76229000" lon="19.49534000">
      <ele>223.00000</ele>
      <time>2010-01-01T00:09:15Z</time>
    </rtept>
    <rtept lat="51.76264000" lon="19.49956000">
      <ele>222.00000</ele>
      <time>2010-01-01T00:11:00Z</time>
    </rtept>
    <rtept lat="51.76331000" lon="19.50844000">
      <ele>224.00000</ele>
      <time>2010-01-01T00:14:42Z</time>
    </rtept>
    <rtept lat="51.76347000" lon="19.51026000">
      <ele>224.00000</ele>
      <time>2010-01-01T00:15:28Z</time>
    </rtept>
    <rtept lat="51.76352000" lon="19.51112000">
      <ele>223.00000</ele>
      <time>2010-01-01T00:15:49Z</time>
    </rtept>
    <rtept lat="51.76359000" lon="19.51496000">
      <ele>224.00000</ele>
      <time>2010-01-01T00:17:24Z</time>
    </rtept>
    <rtept lat="51.76362000" lon="19.51599000">
      <ele>224.00000</ele>
      <time>2010-01-01T00:17:50Z</time>
    </rtept>
    <rtept lat="51.76364000" lon="19.51749000">
      <ele>226.00000</ele>
      <time>2010-01-01T00:18:27Z</time>
    </rtept>
    <rtept lat="51.76367000" lon="19.51814000">
      <ele>226.00000</ele>
      <time>2010-01-01T00:18:43Z</time>
    </rtept>
    <rtept lat="51.76368000" lon="19.51880000">
      <ele>227.00000</ele>
      <time>2010-01-01T00:18:59Z</time>
    </rtept>
    <rtept lat="51.76365000" lon="19.51967000">
      <ele>228.00000</ele>
      <time>2010-01-01T00:19:21Z</time>
    </rtept>
    <rtept lat="51.76360000" lon="19.52033000">
      <ele>229.00000</ele>
      <time>2010-01-01T00:19:37Z</time>
    </rtept>
    <rtept lat="51.76345000" lon="19.52173000">
      <ele>231.00000</ele>
      <time>2010-01-01T00:20:13Z</time>
    </rtept>
    <rtept lat="51.76318000" lon="19.52325000">
      <ele>233.00000</ele>
      <time>2010-01-01T00:20:52Z</time>
    </rtept>
    <rtept lat="51.76221000" lon="19.52861000">
      <ele>237.00000</ele>
      <time>2010-01-01T00:23:10Z</time>
    </rtept>
    <rtept lat="51.76141000" lon="19.53295000">
      <ele>237.00000</ele>
      <time>2010-01-01T00:25:02Z</time>
    </rtept>
    <rtept lat="51.76125000" lon="19.53369000">
      <ele>237.00000</ele>
      <time>2010-01-01T00:25:22Z</time>
    </rtept>
    <rtept lat="51.76102000" lon="19.53456000">
      <ele>237.00000</ele>
      <time>2010-01-01T00:25:45Z</time>
    </rtept>
    <rtept lat="51.76050000" lon="19.53618000">
      <ele>238.00000</ele>
      <time>2010-01-01T00:26:30Z</time>
    </rtept>
    <rtept lat="51.76042000" lon="19.53654000">
      <ele>238.00000</ele>
      <time>2010-01-01T00:26:40Z</time>
    </rtept>
    <rtept lat="51.76026000" lon="19.53761000">
      <ele>237.00000</ele>
      <time>2010-01-01T00:27:07Z</time>
    </rtept>
    <rtept lat="51.76020000" lon="19.53809000">
      <ele>236.00000</ele>
      <time>2010-01-01T00:27:19Z</time>
    </rtept>
    <rtept lat="51.76016000" lon="19.53872000">
      <ele>237.00000</ele>
      <time>2010-01-01T00:27:35Z</time>
    </rtept>
    <rtept lat="51.76009000" lon="19.53981000">
      <ele>237.00000</ele>
      <time>2010-01-01T00:28:02Z</time>
    </rtept>
    <rtept lat="51.75998000" lon="19.54101000">
      <ele>237.00000</ele>
      <time>2010-01-01T00:28:32Z</time>
    </rtept>
    <rtept lat="51.75974000" lon="19.54241000">
      <ele>237.00000</ele>
      <time>2010-01-01T00:29:08Z</time>
    </rtept>
    <rtept lat="51.75909000" lon="19.54595000">
      <ele>234.00000</ele>
      <time>2010-01-01T00:30:40Z</time>
    </rtept>
    <rtept lat="51.75899000" lon="19.54609000">
      <ele>235.00000</ele>
      <time>2010-01-01T00:30:45Z</time>
    </rtept>
    <rtept lat="51.75882000" lon="19.54620000">
      <ele>235.00000</ele>
      <time>2010-01-01T00:30:52Z</time>
    </rtept>
    <rtept lat="51.75872000" lon="19.54622000">
      <ele>235.00000</ele>
      <time>2010-01-01T00:30:56Z</time>
    </rtept>
    <rtept lat="51.75860000" lon="19.54619000">
      <ele>235.00000</ele>
      <time>2010-01-01T00:31:01Z</time>
    </rtept>
    <rtept lat="51.75888890" lon="19.54644799">
      <ele>235.00000</ele>
      <time>2010-01-01T00:31:14Z</time>
    </rtept>
    <rtept lat="51.75892211" lon="19.54686641">
      <ele>236.00000</ele>
      <time>2010-01-01T00:31:25Z</time>
    </rtept>
    <rtept lat="51.75866975" lon="19.54812169">
      <ele>235.00000</ele>
      <time>2010-01-01T00:31:58Z</time>
    </rtept>
    <rtept lat="51.75833107" lon="19.54952716">
      <ele>234.00000</ele>
      <time>2010-01-01T00:32:35Z</time>
    </rtept>
    <rtept lat="51.75781307" lon="19.55138325">
      <ele>234.00000</ele>
      <time>2010-01-01T00:33:25Z</time>
    </rtept>
    <rtept lat="51.75758064" lon="19.55229520">
      <ele>233.00000</ele>
      <time>2010-01-01T00:33:50Z</time>
    </rtept>
    <rtept lat="51.75744117" lon="19.55316424">
      <ele>233.00000</ele>
      <time>2010-01-01T00:34:12Z</time>
    </rtept>
    <rtept lat="51.75739000" lon="19.55346000">
      <ele>233.00000</ele>
      <time>2010-01-01T00:34:20Z</time>
    </rtept>
    <rtept lat="51.75736000" lon="19.55344000">
      <ele>233.00000</ele>
      <time>2010-01-01T00:34:21Z</time>
    </rtept>
    <rtept lat="51.75730000" lon="19.55385000">
      <ele>233.00000</ele>
      <time>2010-01-01T00:34:31Z</time>
    </rtept>
    <rtept lat="51.75719000" lon="19.55476000">
      <ele>234.00000</ele>
      <time>2010-01-01T00:34:54Z</time>
    </rtept>
    <rtept lat="51.75702000" lon="19.55647000">
      <ele>234.00000</ele>
      <time>2010-01-01T00:35:37Z</time>
    </rtept>
    <rtept lat="51.75694000" lon="19.55704000">
      <ele>234.00000</ele>
      <time>2010-01-01T00:35:52Z</time>
    </rtept>
    <rtept lat="51.75679000" lon="19.55769000">
      <ele>233.00000</ele>
      <time>2010-01-01T00:36:09Z</time>
    </rtept>
    <rtept lat="51.75656000" lon="19.55860000">
      <ele>233.00000</ele>
      <time>2010-01-01T00:36:33Z</time>
    </rtept>
    <rtept lat="51.75638000" lon="19.55949000">
      <ele>232.00000</ele>
      <time>2010-01-01T00:36:57Z</time>
    </rtept>
    <rtept lat="51.75620000" lon="19.56052000">
      <ele>231.00000</ele>
      <time>2010-01-01T00:37:23Z</time>
    </rtept>
    <rtept lat="51.75604000" lon="19.56202000">
      <ele>229.00000</ele>
      <time>2010-01-01T00:38:01Z</time>
    </rtept>
    <rtept lat="51.75591000" lon="19.56284000">
      <ele>228.00000</ele>
      <time>2010-01-01T00:38:22Z</time>
    </rtept>
    <rtept lat="51.75371000" lon="19.57488000">
      <ele>225.00000</ele>
      <time>2010-01-01T00:43:33Z</time>
    </rtept>
    <rtept lat="51.75190219" lon="19.57407474">
      <ele>224.00000</ele>
      <time>2010-01-01T00:44:48Z</time>
    </rtept>
    <rtept lat="51.75189000" lon="19.57412000">
      <ele>224.00000</ele>
      <time>2010-01-01T00:44:49Z</time>
    </rtept>
    <rtept lat="51.75089000" lon="19.57381000">
      <ele>225.00000</ele>
      <time>2010-01-01T00:45:30Z</time>
    </rtept>
    <rtept lat="51.74948000" lon="19.57316000">
      <ele>222.00000</ele>
      <time>2010-01-01T00:46:29Z</time>
    </rtept>
    <rtept lat="51.74947000" lon="19.57316000">
      <ele>222.00000</ele>
      <time>2010-01-01T00:46:29Z</time>
    </rtept>
    <rtept lat="51.74616000" lon="19.57161000">
      <ele>220.00000</ele>
      <time>2010-01-01T00:48:47Z</time>
    </rtept>
    <rtept lat="51.74615000" lon="19.57161000">
      <ele>220.00000</ele>
      <time>2010-01-01T00:48:47Z</time>
    </rtept>
    <rtept lat="51.74321000" lon="19.57023000">
      <ele>218.00000</ele>
      <time>2010-01-01T00:50:50Z</time>
    </rtept>
    <rtept lat="51.74320000" lon="19.57023000">
      <ele>218.00000</ele>
      <time>2010-01-01T00:50:50Z</time>
    </rtept>
    <rtept lat="51.74152000" lon="19.56945000">
      <ele>219.00000</ele>
      <time>2010-01-01T00:52:00Z</time>
    </rtept>
    <rtept lat="51.74051000" lon="19.56891000">
      <ele>218.00000</ele>
      <time>2010-01-01T00:52:43Z</time>
    </rtept>
    <rtept lat="51.74060000" lon="19.56844000">
      <ele>219.00000</ele>
      <time>2010-01-01T00:52:55Z</time>
    </rtept>
    <rtept lat="51.74061000" lon="19.56806000">
      <ele>219.00000</ele>
      <time>2010-01-01T00:53:05Z</time>
    </rtept>
    <rtept lat="51.74160000" lon="19.56234000">
      <ele>218.00000</ele>
      <time>2010-01-01T00:55:32Z</time>
    </rtept>
    <rtept lat="51.74179000" lon="19.56154000">
      <ele>217.00000</ele>
      <time>2010-01-01T00:55:53Z</time>
    </rtept>
    <rtept lat="51.74203000" lon="19.56018000">
      <ele>217.00000</ele>
      <time>2010-01-01T00:56:28Z</time>
    </rtept>
    <rtept lat="51.74259000" lon="19.55686000">
      <ele>218.00000</ele>
      <time>2010-01-01T00:57:53Z</time>
    </rtept>
    <rtept lat="51.74288000" lon="19.55486000">
      <ele>218.00000</ele>
      <time>2010-01-01T00:58:44Z</time>
    </rtept>
    <rtept lat="51.74338000" lon="19.55203000">
      <ele>222.00000</ele>
      <time>2010-01-01T00:59:57Z</time>
    </rtept>
    <rtept lat="51.74344000" lon="19.55178000">
      <ele>222.00000</ele>
      <time>2010-01-01T01:00:04Z</time>
    </rtept>
    <rtept lat="51.74349000" lon="19.55169000">
      <ele>222.00000</ele>
      <time>2010-01-01T01:00:07Z</time>
    </rtept>
    <rtept lat="51.74357000" lon="19.55162000">
      <ele>222.00000</ele>
      <time>2010-01-01T01:00:10Z</time>
    </rtept>
    <rtept lat="51.74366000" lon="19.55161000">
      <ele>222.00000</ele>
      <time>2010-01-01T01:00:14Z</time>
    </rtept>
    <rtept lat="51.74373000" lon="19.55163000">
      <ele>223.00000</ele>
      <time>2010-01-01T01:00:17Z</time>
    </rtept>
    <rtept lat="51.74515000" lon="19.55311000">
      <ele>221.00000</ele>
      <time>2010-01-01T01:01:25Z</time>
    </rtept>
    <rtept lat="51.74655000" lon="19.55463000">
      <ele>222.00000</ele>
      <time>2010-01-01T01:02:32Z</time>
    </rtept>
    <rtept lat="51.74666000" lon="19.55468000">
      <ele>222.00000</ele>
      <time>2010-01-01T01:02:37Z</time>
    </rtept>
    <rtept lat="51.74679000" lon="19.55467000">
      <ele>222.00000</ele>
      <time>2010-01-01T01:02:42Z</time>
    </rtept>
    <rtept lat="51.74691000" lon="19.55458000">
      <ele>222.00000</ele>
      <time>2010-01-01T01:02:47Z</time>
    </rtept>
    <rtept lat="51.74697000" lon="19.55442000">
      <ele>223.00000</ele>
      <time>2010-01-01T01:02:52Z</time>
    </rtept>
    <rtept lat="51.74718000" lon="19.55336000">
      <ele>225.00000</ele>
      <time>2010-01-01T01:03:19Z</time>
    </rtept>
    <rtept lat="51.74752000" lon="19.55181000">
      <ele>220.00000</ele>
      <time>2010-01-01T01:04:00Z</time>
    </rtept>
    <rtept lat="51.74783000" lon="19.55068000">
      <ele>219.00000</ele>
      <time>2010-01-01T01:04:31Z</time>
    </rtept>
    <rtept lat="51.74826000" lon="19.54942000">
      <ele>222.00000</ele>
      <time>2010-01-01T01:05:06Z</time>
    </rtept>
    <rtept lat="51.74950000" lon="19.54642000">
      <ele>226.00000</ele>
      <time>2010-01-01T01:06:36Z</time>
    </rtept>
    <rtept lat="51.75008000" lon="19.54546000">
      <ele>227.00000</ele>
      <time>2010-01-01T01:07:09Z</time>
    </rtept>
    <rtept lat="51.75036000" lon="19.54488000">
      <ele>227.00000</ele>
      <time>2010-01-01T01:07:27Z</time>
    </rtept>
    <rtept lat="51.75058000" lon="19.54435000">
      <ele>226.00000</ele>
      <time>2010-01-01T01:07:43Z</time>
    </rtept>
    <rtept lat="51.75101000" lon="19.54321000">
      <ele>226.00000</ele>
      <time>2010-01-01T01:08:16Z</time>
    </rtept>
    <rtept lat="51.75140000" lon="19.54201000">
      <ele>228.00000</ele>
      <time>2010-01-01T01:08:50Z</time>
    </rtept>
    <rtept lat="51.75159000" lon="19.54126000">
      <ele>228.00000</ele>
      <time>2010-01-01T01:09:10Z</time>
    </rtept>
    <rtept lat="51.75172000" lon="19.54070000">
      <ele>228.00000</ele>
      <time>2010-01-01T01:09:25Z</time>
    </rtept>
    <rtept lat="51.75187000" lon="19.53987000">
      <ele>229.00000</ele>
      <time>2010-01-01T01:09:46Z</time>
    </rtept>
    <rtept lat="51.75291000" lon="19.53301000">
      <ele>228.00000</ele>
      <time>2010-01-01T01:12:41Z</time>
    </rtept>
    <rtept lat="51.75299000" lon="19.53260000">
      <ele>227.00000</ele>
      <time>2010-01-01T01:12:52Z</time>
    </rtept>
    <rtept lat="51.75304000" lon="19.53248000">
      <ele>227.00000</ele>
      <time>2010-01-01T01:12:55Z</time>
    </rtept>
    <rtept lat="51.75313000" lon="19.53236000">
      <ele>227.00000</ele>
      <time>2010-01-01T01:13:00Z</time>
    </rtept>
    <rtept lat="51.75321000" lon="19.53230000">
      <ele>227.00000</ele>
      <time>2010-01-01T01:13:04Z</time>
    </rtept>
    <rtept lat="51.75339000" lon="19.53226000">
      <ele>227.00000</ele>
      <time>2010-01-01T01:13:11Z</time>
    </rtept>
    <rtept lat="51.75376000" lon="19.53242000">
      <ele>229.00000</ele>
      <time>2010-01-01T01:13:26Z</time>
    </rtept>
    <rtept lat="51.75404000" lon="19.53262000">
      <ele>230.00000</ele>
      <time>2010-01-01T01:13:38Z</time>
    </rtept>
    <rtept lat="51.75403000" lon="19.53262000">
      <ele>230.00000</ele>
      <time>2010-01-01T01:13:39Z</time>
    </rtept>
    <rtept lat="51.75414000" lon="19.53269000">
      <ele>231.00000</ele>
      <time>2010-01-01T01:13:44Z</time>
    </rtept>
    <rtept lat="51.75624000" lon="19.53501000">
      <ele>233.00000</ele>
      <time>2010-01-01T01:15:25Z</time>
    </rtept>
    <rtept lat="51.75654000" lon="19.53527000">
      <ele>233.00000</ele>
      <time>2010-01-01T01:15:39Z</time>
    </rtept>
    <rtept lat="51.75694000" lon="19.53551000">
      <ele>234.00000</ele>
      <time>2010-01-01T01:15:56Z</time>
    </rtept>
    <rtept lat="51.75858000" lon="19.53625000">
      <ele>234.00000</ele>
      <time>2010-01-01T01:17:04Z</time>
    </rtept>
    <rtept lat="51.75894000" lon="19.53647000">
      <ele>234.00000</ele>
      <time>2010-01-01T01:17:20Z</time>
    </rtept>
    <rtept lat="51.75893000" lon="19.53647000">
      <ele>234.00000</ele>
      <time>2010-01-01T01:17:20Z</time>
    </rtept>
    <rtept lat="51.76029000" lon="19.53735000">
      <ele>237.00000</ele>
      <time>2010-01-01T01:18:19Z</time>
    </rtept>
    <rtept lat="51.76101000" lon="19.53776000">
      <ele>238.00000</ele>
      <time>2010-01-01T01:18:49Z</time>
    </rtept>
    <rtept lat="51.76124000" lon="19.53654000">
      <ele>239.00000</ele>
      <time>2010-01-01T01:19:21Z</time>
    </rtept>
    <rtept lat="51.76144000" lon="19.53436000">
      <ele>237.00000</ele>
      <time>2010-01-01T01:20:15Z</time>
    </rtept>
    <rtept lat="51.76161000" lon="19.53317000">
      <ele>236.00000</ele>
      <time>2010-01-01T01:20:46Z</time>
    </rtept>
    <rtept lat="51.76215000" lon="19.53023000">
      <ele>236.00000</ele>
      <time>2010-01-01T01:22:02Z</time>
    </rtept>
    <rtept lat="51.76331000" lon="19.52400000">
      <ele>235.00000</ele>
      <time>2010-01-01T01:24:43Z</time>
    </rtept>
    <rtept lat="51.76414000" lon="19.51940000">
      <ele>226.00000</ele>
      <time>2010-01-01T01:26:42Z</time>
    </rtept>
    <rtept lat="51.76424000" lon="19.51876000">
      <ele>226.00000</ele>
      <time>2010-01-01T01:26:58Z</time>
    </rtept>
    <rtept lat="51.76429000" lon="19.51819000">
      <ele>226.00000</ele>
      <time>2010-01-01T01:27:12Z</time>
    </rtept>
    <rtept lat="51.76431000" lon="19.51728000">
      <ele>227.00000</ele>
      <time>2010-01-01T01:27:35Z</time>
    </rtept>
    <rtept lat="51.76430000" lon="19.51671000">
      <ele>226.00000</ele>
      <time>2010-01-01T01:27:49Z</time>
    </rtept>
    <rtept lat="51.76424000" lon="19.51594000">
      <ele>225.00000</ele>
      <time>2010-01-01T01:28:08Z</time>
    </rtept>
    <rtept lat="51.76387000" lon="19.51272000">
      <ele>222.00000</ele>
      <time>2010-01-01T01:29:29Z</time>
    </rtept>
    <rtept lat="51.76379000" lon="19.51179000">
      <ele>222.00000</ele>
      <time>2010-01-01T01:29:53Z</time>
    </rtept>
    <rtept lat="51.76370000" lon="19.51063000">
      <ele>224.00000</ele>
      <time>2010-01-01T01:30:22Z</time>
    </rtept>
    <rtept lat="51.76359000" lon="19.50840000">
      <ele>225.00000</ele>
      <time>2010-01-01T01:31:17Z</time>
    </rtept>
    <rtept lat="51.76294000" lon="19.50064000">
      <ele>224.00000</ele>
      <time>2010-01-01T01:34:31Z</time>
    </rtept>
    <rtept lat="51.76254000" lon="19.49556000">
      <ele>224.00000</ele>
      <time>2010-01-01T01:36:38Z</time>
    </rtept>
    <rtept lat="51.76296000" lon="19.49548000">
      <ele>224.00000</ele>
      <time>2010-01-01T01:36:55Z</time>
    </rtept>
  </rte>
</gpx>
