<?xml version="1.0" encoding="UTF-8"?>
<gpx xmlns="http://www.topografix.com/GPX/1/1" xmlns:xsi="http://www.w3.org/2001/XMLSchema-instance" creator="GPSies http://www.gpsies.com - MANUFAKTURA Tramwaj Manufaktury" version="1.1" xsi:schemaLocation="http://www.topografix.com/GPX/1/1 http://www.topografix.com/GPX/1/1/gpx.xsd">
  <metadata>
    <name>MANUFAKTURA Tramwaj Manufaktury</name>
    <link href="http://www.gpsies.com/">
      <text>MANUFAKTURA Tramwaj Manufaktury on GPSies.com</text>
    </link>
    <time>2014-12-29T20:34:42Z</time>
  </metadata>
  <wpt lat="51.77984256" lon="19.44296836">
    <ele>198.00000</ele>
    <name>CH MANUFAKTURA</name>
    <sym>141</sym>
    <type>Generic</type>
  <id>141</id></wpt>
  <wpt lat="51.77655675" lon="19.45534944">
    <ele>209.00000</ele>
    <name>Plac Wolności</name>
    <sym>140</sym>
    <type>Generic</type>
  <id>140</id></wpt>
  <wpt lat="51.77876723" lon="19.44704532">
    <ele>204.00000</ele>
    <name>Manufaktura / Muzeum</name>
    <sym>139</sym>
    <type>Generic</type>
  <id>139</id></wpt>
  <wpt lat="51.77399431" lon="19.42752957">
    <ele>200.00000</ele>
    <name>Srebrzyńska</name>
    <sym>138</sym>
    <type>Generic</type>
  <id>138</id></wpt>
  <wpt lat="51.78123647" lon="19.42946076">
    <ele>195.00000</ele>
    <name>Okrzei</name>
    <sym>137</sym>
    <type>Generic</type>
  <id>137</id></wpt>
  <wpt lat="51.77981601" lon="19.44280743">
    <ele>197.00000</ele>
    <name>CH MANUFAKTURA</name>
    <sym>136</sym>
    <type>Generic</type>
  <id>136</id></wpt>
  <rte>
    <name>MANUFAKTURA Tramwaj Manufaktury on GPSies.com</name>
    <rtept lat="51.77981601" lon="19.44300055">
      <ele>198.00000</ele>
      <time>2010-01-01T00:00:00Z</time>
    </rtept>
    <rtept lat="51.77981000" lon="19.44299000">
      <ele>198.00000</ele>
      <time>2010-01-01T00:00:00Z</time>
    </rtept>
    <rtept lat="51.77989000" lon="19.44313000">
      <ele>198.00000</ele>
      <time>2010-01-01T00:00:01Z</time>
    </rtept>
    <rtept lat="51.77999000" lon="19.44317000">
      <ele>198.00000</ele>
      <time>2010-01-01T00:00:03Z</time>
    </rtept>
    <rtept lat="51.78076000" lon="19.44280000">
      <ele>199.00000</ele>
      <time>2010-01-01T00:00:13Z</time>
    </rtept>
    <rtept lat="51.78086000" lon="19.44268000">
      <ele>199.00000</ele>
      <time>2010-01-01T00:00:15Z</time>
    </rtept>
    <rtept lat="51.78092000" lon="19.44263000">
      <ele>200.00000</ele>
      <time>2010-01-01T00:00:16Z</time>
    </rtept>
    <rtept lat="51.78104000" lon="19.44259000">
      <ele>201.00000</ele>
      <time>2010-01-01T00:00:17Z</time>
    </rtept>
    <rtept lat="51.78105000" lon="19.44263000">
      <ele>201.00000</ele>
      <time>2010-01-01T00:00:18Z</time>
    </rtept>
    <rtept lat="51.78105000" lon="19.44262000">
      <ele>201.00000</ele>
      <time>2010-01-01T00:00:18Z</time>
    </rtept>
    <rtept lat="51.78121000" lon="19.44347000">
      <ele>201.00000</ele>
      <time>2010-01-01T00:00:25Z</time>
    </rtept>
    <rtept lat="51.78133000" lon="19.44381000">
      <ele>201.00000</ele>
      <time>2010-01-01T00:00:28Z</time>
    </rtept>
    <rtept lat="51.78210000" lon="19.44804000">
      <ele>204.00000</ele>
      <time>2010-01-01T00:01:05Z</time>
    </rtept>
    <rtept lat="51.78214000" lon="19.44843000">
      <ele>204.00000</ele>
      <time>2010-01-01T00:01:08Z</time>
    </rtept>
    <rtept lat="51.78216000" lon="19.44878000">
      <ele>204.00000</ele>
      <time>2010-01-01T00:01:11Z</time>
    </rtept>
    <rtept lat="51.78214000" lon="19.44909000">
      <ele>204.00000</ele>
      <time>2010-01-01T00:01:14Z</time>
    </rtept>
    <rtept lat="51.78194000" lon="19.45060000">
      <ele>205.00000</ele>
      <time>2010-01-01T00:01:26Z</time>
    </rtept>
    <rtept lat="51.78136000" lon="19.45079000">
      <ele>204.00000</ele>
      <time>2010-01-01T00:01:34Z</time>
    </rtept>
    <rtept lat="51.77977000" lon="19.45135000">
      <ele>203.00000</ele>
      <time>2010-01-01T00:01:56Z</time>
    </rtept>
    <rtept lat="51.77856000" lon="19.45162000">
      <ele>206.00000</ele>
      <time>2010-01-01T00:02:12Z</time>
    </rtept>
    <rtept lat="51.77866000" lon="19.45215000">
      <ele>206.00000</ele>
      <time>2010-01-01T00:02:17Z</time>
    </rtept>
    <rtept lat="51.77866000" lon="19.45214000">
      <ele>206.00000</ele>
      <time>2010-01-01T00:02:17Z</time>
    </rtept>
    <rtept lat="51.77886000" lon="19.45424000">
      <ele>206.00000</ele>
      <time>2010-01-01T00:02:34Z</time>
    </rtept>
    <rtept lat="51.77718000" lon="19.45461000">
      <ele>208.00000</ele>
      <time>2010-01-01T00:02:57Z</time>
    </rtept>
    <rtept lat="51.77712000" lon="19.45437000">
      <ele>208.00000</ele>
      <time>2010-01-01T00:02:59Z</time>
    </rtept>
    <rtept lat="51.77702000" lon="19.45419000">
      <ele>208.00000</ele>
      <time>2010-01-01T00:03:01Z</time>
    </rtept>
    <rtept lat="51.77689000" lon="19.45408000">
      <ele>208.00000</ele>
      <time>2010-01-01T00:03:03Z</time>
    </rtept>
    <rtept lat="51.77680000" lon="19.45405000">
      <ele>209.00000</ele>
      <time>2010-01-01T00:03:04Z</time>
    </rtept>
    <rtept lat="51.77665000" lon="19.45409000">
      <ele>209.00000</ele>
      <time>2010-01-01T00:03:06Z</time>
    </rtept>
    <rtept lat="51.77658000" lon="19.45415000">
      <ele>209.00000</ele>
      <time>2010-01-01T00:03:08Z</time>
    </rtept>
    <rtept lat="51.77649000" lon="19.45428000">
      <ele>209.00000</ele>
      <time>2010-01-01T00:03:09Z</time>
    </rtept>
    <rtept lat="51.77642000" lon="19.45445000">
      <ele>209.00000</ele>
      <time>2010-01-01T00:03:11Z</time>
    </rtept>
    <rtept lat="51.77639000" lon="19.45463000">
      <ele>210.00000</ele>
      <time>2010-01-01T00:03:12Z</time>
    </rtept>
    <rtept lat="51.77639000" lon="19.45479000">
      <ele>210.00000</ele>
      <time>2010-01-01T00:03:14Z</time>
    </rtept>
    <rtept lat="51.77641000" lon="19.45494000">
      <ele>210.00000</ele>
      <time>2010-01-01T00:03:15Z</time>
    </rtept>
    <rtept lat="51.77648000" lon="19.45512000">
      <ele>210.00000</ele>
      <time>2010-01-01T00:03:17Z</time>
    </rtept>
    <rtept lat="51.77660000" lon="19.45528000">
      <ele>209.00000</ele>
      <time>2010-01-01T00:03:19Z</time>
    </rtept>
    <rtept lat="51.77659000" lon="19.45528000">
      <ele>209.00000</ele>
      <time>2010-01-01T00:03:19Z</time>
    </rtept>
    <rtept lat="51.77666000" lon="19.45532000">
      <ele>209.00000</ele>
      <time>2010-01-01T00:03:20Z</time>
    </rtept>
    <rtept lat="51.77676000" lon="19.45536000">
      <ele>209.00000</ele>
      <time>2010-01-01T00:03:21Z</time>
    </rtept>
    <rtept lat="51.77684000" lon="19.45535000">
      <ele>209.00000</ele>
      <time>2010-01-01T00:03:22Z</time>
    </rtept>
    <rtept lat="51.77694000" lon="19.45530000">
      <ele>209.00000</ele>
      <time>2010-01-01T00:03:24Z</time>
    </rtept>
    <rtept lat="51.77701000" lon="19.45524000">
      <ele>209.00000</ele>
      <time>2010-01-01T00:03:25Z</time>
    </rtept>
    <rtept lat="51.77712000" lon="19.45504000">
      <ele>209.00000</ele>
      <time>2010-01-01T00:03:27Z</time>
    </rtept>
    <rtept lat="51.77717000" lon="19.45485000">
      <ele>208.00000</ele>
      <time>2010-01-01T00:03:29Z</time>
    </rtept>
    <rtept lat="51.77718000" lon="19.45461000">
      <ele>208.00000</ele>
      <time>2010-01-01T00:03:31Z</time>
    </rtept>
    <rtept lat="51.77899000" lon="19.45421000">
      <ele>205.00000</ele>
      <time>2010-01-01T00:03:55Z</time>
    </rtept>
    <rtept lat="51.77881000" lon="19.45217000">
      <ele>206.00000</ele>
      <time>2010-01-01T00:04:12Z</time>
    </rtept>
    <rtept lat="51.77881000" lon="19.45216000">
      <ele>206.00000</ele>
      <time>2010-01-01T00:04:12Z</time>
    </rtept>
    <rtept lat="51.77879000" lon="19.45200000">
      <ele>206.00000</ele>
      <time>2010-01-01T00:04:14Z</time>
    </rtept>
    <rtept lat="51.77859000" lon="19.45143000">
      <ele>206.00000</ele>
      <time>2010-01-01T00:04:19Z</time>
    </rtept>
    <rtept lat="51.77845000" lon="19.45004000">
      <ele>209.00000</ele>
      <time>2010-01-01T00:04:31Z</time>
    </rtept>
    <rtept lat="51.77819000" lon="19.44695000">
      <ele>205.00000</ele>
      <time>2010-01-01T00:04:56Z</time>
    </rtept>
    <rtept lat="51.77835000" lon="19.44695000">
      <ele>205.00000</ele>
      <time>2010-01-01T00:04:58Z</time>
    </rtept>
    <rtept lat="51.77862000" lon="19.44705000">
      <ele>204.00000</ele>
      <time>2010-01-01T00:05:02Z</time>
    </rtept>
    <rtept lat="51.77870000" lon="19.44720000">
      <ele>204.00000</ele>
      <time>2010-01-01T00:05:04Z</time>
    </rtept>
    <rtept lat="51.77870000" lon="19.44731000">
      <ele>205.00000</ele>
      <time>2010-01-01T00:05:05Z</time>
    </rtept>
    <rtept lat="51.77874000" lon="19.44736000">
      <ele>205.00000</ele>
      <time>2010-01-01T00:05:05Z</time>
    </rtept>
    <rtept lat="51.77877000" lon="19.44737000">
      <ele>205.00000</ele>
      <time>2010-01-01T00:05:06Z</time>
    </rtept>
    <rtept lat="51.77880000" lon="19.44734000">
      <ele>204.00000</ele>
      <time>2010-01-01T00:05:06Z</time>
    </rtept>
    <rtept lat="51.77882000" lon="19.44727000">
      <ele>204.00000</ele>
      <time>2010-01-01T00:05:07Z</time>
    </rtept>
    <rtept lat="51.77881000" lon="19.44720000">
      <ele>204.00000</ele>
      <time>2010-01-01T00:05:07Z</time>
    </rtept>
    <rtept lat="51.77878000" lon="19.44716000">
      <ele>204.00000</ele>
      <time>2010-01-01T00:05:08Z</time>
    </rtept>
    <rtept lat="51.77872000" lon="19.44717000">
      <ele>204.00000</ele>
      <time>2010-01-01T00:05:09Z</time>
    </rtept>
    <rtept lat="51.77870000" lon="19.44720000">
      <ele>204.00000</ele>
      <time>2010-01-01T00:05:09Z</time>
    </rtept>
    <rtept lat="51.77862000" lon="19.44705000">
      <ele>204.00000</ele>
      <time>2010-01-01T00:05:11Z</time>
    </rtept>
    <rtept lat="51.77835000" lon="19.44695000">
      <ele>205.00000</ele>
      <time>2010-01-01T00:05:14Z</time>
    </rtept>
    <rtept lat="51.77819000" lon="19.44695000">
      <ele>205.00000</ele>
      <time>2010-01-01T00:05:17Z</time>
    </rtept>
    <rtept lat="51.77797000" lon="19.44406000">
      <ele>202.00000</ele>
      <time>2010-01-01T00:05:41Z</time>
    </rtept>
    <rtept lat="51.77799000" lon="19.44339000">
      <ele>200.00000</ele>
      <time>2010-01-01T00:05:46Z</time>
    </rtept>
    <rtept lat="51.77798000" lon="19.44306000">
      <ele>200.00000</ele>
      <time>2010-01-01T00:05:49Z</time>
    </rtept>
    <rtept lat="51.77795000" lon="19.44274000">
      <ele>200.00000</ele>
      <time>2010-01-01T00:05:52Z</time>
    </rtept>
    <rtept lat="51.77786000" lon="19.44229000">
      <ele>200.00000</ele>
      <time>2010-01-01T00:05:55Z</time>
    </rtept>
    <rtept lat="51.77647000" lon="19.43869000">
      <ele>204.00000</ele>
      <time>2010-01-01T00:06:31Z</time>
    </rtept>
    <rtept lat="51.77577000" lon="19.43643000">
      <ele>206.00000</ele>
      <time>2010-01-01T00:06:51Z</time>
    </rtept>
    <rtept lat="51.77514000" lon="19.43424000">
      <ele>206.00000</ele>
      <time>2010-01-01T00:07:11Z</time>
    </rtept>
    <rtept lat="51.77500000" lon="19.43369000">
      <ele>205.00000</ele>
      <time>2010-01-01T00:07:16Z</time>
    </rtept>
    <rtept lat="51.77408000" lon="19.42982000">
      <ele>202.00000</ele>
      <time>2010-01-01T00:07:50Z</time>
    </rtept>
    <rtept lat="51.77366000" lon="19.42793000">
      <ele>199.00000</ele>
      <time>2010-01-01T00:08:07Z</time>
    </rtept>
    <rtept lat="51.77367000" lon="19.42763000">
      <ele>199.00000</ele>
      <time>2010-01-01T00:08:10Z</time>
    </rtept>
    <rtept lat="51.77377000" lon="19.42743000">
      <ele>199.00000</ele>
      <time>2010-01-01T00:08:12Z</time>
    </rtept>
    <rtept lat="51.77386000" lon="19.42737000">
      <ele>199.00000</ele>
      <time>2010-01-01T00:08:13Z</time>
    </rtept>
    <rtept lat="51.77398000" lon="19.42734000">
      <ele>199.00000</ele>
      <time>2010-01-01T00:08:15Z</time>
    </rtept>
    <rtept lat="51.77434000" lon="19.42724000">
      <ele>200.00000</ele>
      <time>2010-01-01T00:08:19Z</time>
    </rtept>
    <rtept lat="51.77470000" lon="19.42724000">
      <ele>200.00000</ele>
      <time>2010-01-01T00:08:24Z</time>
    </rtept>
    <rtept lat="51.77690000" lon="19.42742000">
      <ele>198.00000</ele>
      <time>2010-01-01T00:08:54Z</time>
    </rtept>
    <rtept lat="51.77732000" lon="19.42743000">
      <ele>198.00000</ele>
      <time>2010-01-01T00:08:59Z</time>
    </rtept>
    <rtept lat="51.77861000" lon="19.42730000">
      <ele>198.00000</ele>
      <time>2010-01-01T00:09:16Z</time>
    </rtept>
    <rtept lat="51.78038000" lon="19.42692000">
      <ele>195.00000</ele>
      <time>2010-01-01T00:09:40Z</time>
    </rtept>
    <rtept lat="51.78068000" lon="19.42689000">
      <ele>195.00000</ele>
      <time>2010-01-01T00:09:44Z</time>
    </rtept>
    <rtept lat="51.78114000" lon="19.42673000">
      <ele>194.00000</ele>
      <time>2010-01-01T00:09:51Z</time>
    </rtept>
    <rtept lat="51.78133000" lon="19.42812000">
      <ele>195.00000</ele>
      <time>2010-01-01T00:10:02Z</time>
    </rtept>
    <rtept lat="51.78136000" lon="19.42848000">
      <ele>195.00000</ele>
      <time>2010-01-01T00:10:05Z</time>
    </rtept>
    <rtept lat="51.78135000" lon="19.42878000">
      <ele>196.00000</ele>
      <time>2010-01-01T00:10:08Z</time>
    </rtept>
    <rtept lat="51.78132000" lon="19.42949000">
      <ele>196.00000</ele>
      <time>2010-01-01T00:10:14Z</time>
    </rtept>
    <rtept lat="51.78118000" lon="19.43275000">
      <ele>194.00000</ele>
      <time>2010-01-01T00:10:41Z</time>
    </rtept>
    <rtept lat="51.78111000" lon="19.43411000">
      <ele>193.00000</ele>
      <time>2010-01-01T00:10:52Z</time>
    </rtept>
    <rtept lat="51.78074000" lon="19.43689000">
      <ele>197.00000</ele>
      <time>2010-01-01T00:11:15Z</time>
    </rtept>
    <rtept lat="51.78070000" lon="19.43710000">
      <ele>197.00000</ele>
      <time>2010-01-01T00:11:17Z</time>
    </rtept>
    <rtept lat="51.78059000" lon="19.43809000">
      <ele>198.00000</ele>
      <time>2010-01-01T00:11:26Z</time>
    </rtept>
    <rtept lat="51.78053000" lon="19.43880000">
      <ele>199.00000</ele>
      <time>2010-01-01T00:11:31Z</time>
    </rtept>
    <rtept lat="51.78053000" lon="19.43922000">
      <ele>200.00000</ele>
      <time>2010-01-01T00:11:35Z</time>
    </rtept>
    <rtept lat="51.78070000" lon="19.44018000">
      <ele>200.00000</ele>
      <time>2010-01-01T00:11:43Z</time>
    </rtept>
    <rtept lat="51.78078000" lon="19.44070000">
      <ele>199.00000</ele>
      <time>2010-01-01T00:11:48Z</time>
    </rtept>
    <rtept lat="51.78082000" lon="19.44129000">
      <ele>199.00000</ele>
      <time>2010-01-01T00:11:52Z</time>
    </rtept>
    <rtept lat="51.78102000" lon="19.44245000">
      <ele>200.00000</ele>
      <time>2010-01-01T00:12:02Z</time>
    </rtept>
    <rtept lat="51.78102000" lon="19.44244000">
      <ele>200.00000</ele>
      <time>2010-01-01T00:12:03Z</time>
    </rtept>
    <rtept lat="51.78121000" lon="19.44347000">
      <ele>201.00000</ele>
      <time>2010-01-01T00:12:11Z</time>
    </rtept>
    <rtept lat="51.78133000" lon="19.44381000">
      <ele>201.00000</ele>
      <time>2010-01-01T00:12:15Z</time>
    </rtept>
    <rtept lat="51.78113000" lon="19.44269000">
      <ele>201.00000</ele>
      <time>2010-01-01T00:12:24Z</time>
    </rtept>
    <rtept lat="51.78109000" lon="19.44255000">
      <ele>201.00000</ele>
      <time>2010-01-01T00:12:26Z</time>
    </rtept>
    <rtept lat="51.78103000" lon="19.44246000">
      <ele>200.00000</ele>
      <time>2010-01-01T00:12:27Z</time>
    </rtept>
    <rtept lat="51.78100000" lon="19.44245000">
      <ele>200.00000</ele>
      <time>2010-01-01T00:12:27Z</time>
    </rtept>
    <rtept lat="51.78089000" lon="19.44249000">
      <ele>199.00000</ele>
      <time>2010-01-01T00:12:29Z</time>
    </rtept>
    <rtept lat="51.78083000" lon="19.44242000">
      <ele>199.00000</ele>
      <time>2010-01-01T00:12:29Z</time>
    </rtept>
    <rtept lat="51.78080000" lon="19.44235000">
      <ele>199.00000</ele>
      <time>2010-01-01T00:12:30Z</time>
    </rtept>
    <rtept lat="51.78066000" lon="19.44155000">
      <ele>199.00000</ele>
      <time>2010-01-01T00:12:37Z</time>
    </rtept>
    <rtept lat="51.78061000" lon="19.44143000">
      <ele>199.00000</ele>
      <time>2010-01-01T00:12:38Z</time>
    </rtept>
    <rtept lat="51.78036000" lon="19.44121000">
      <ele>198.00000</ele>
      <time>2010-01-01T00:12:42Z</time>
    </rtept>
    <rtept lat="51.78024000" lon="19.44122000">
      <ele>198.00000</ele>
      <time>2010-01-01T00:12:44Z</time>
    </rtept>
    <rtept lat="51.77970000" lon="19.44149000">
      <ele>198.00000</ele>
      <time>2010-01-01T00:12:51Z</time>
    </rtept>
    <rtept lat="51.77962000" lon="19.44160000">
      <ele>198.00000</ele>
      <time>2010-01-01T00:12:53Z</time>
    </rtept>
    <rtept lat="51.77962000" lon="19.44181000">
      <ele>197.00000</ele>
      <time>2010-01-01T00:12:54Z</time>
    </rtept>
    <rtept lat="51.77978000" lon="19.44288000">
      <ele>197.00000</ele>
      <time>2010-01-01T00:13:03Z</time>
    </rtept>
  </rte>
</gpx>
